<?xml version="1.0" encoding="UTF-8" standalone="no"?>
<svg
   xmlns:dc="http://purl.org/dc/elements/1.1/"
   xmlns:cc="http://creativecommons.org/ns#"
   xmlns:rdf="http://www.w3.org/1999/02/22-rdf-syntax-ns#"
   xmlns:svg="http://www.w3.org/2000/svg"
   xmlns="http://www.w3.org/2000/svg"
   xmlns:sodipodi="http://sodipodi.sourceforge.net/DTD/sodipodi-0.dtd"
   xmlns:inkscape="http://www.inkscape.org/namespaces/inkscape"
   version="1.1"
   viewBox="0 0 398.85648 398.14176"
   stroke-miterlimit="10"
   id="svg2"
   inkscape:version="0.91 r13725"
   sodipodi:docname="vegoans-product-icon.svg"
   width="398.85648"
   height="398.14175"
   style="fill:none;stroke:none;stroke-linecap:square;stroke-miterlimit:10">
  <metadata
     id="metadata27">
    <rdf:RDF>
      <cc:Work
         rdf:about="">
        <dc:format>image/svg+xml</dc:format>
        <dc:type
           rdf:resource="http://purl.org/dc/dcmitype/StillImage" />
        <dc:title></dc:title>
      </cc:Work>
    </rdf:RDF>
  </metadata>
  <defs
     id="defs25" />
  <sodipodi:namedview
     pagecolor="#ffffff"
     bordercolor="#666666"
     borderopacity="1"
     objecttolerance="10"
     gridtolerance="10"
     guidetolerance="10"
     inkscape:pageopacity="0"
     inkscape:pageshadow="2"
     inkscape:window-width="928"
     inkscape:window-height="1028"
     id="namedview23"
     showgrid="false"
     showguides="true"
     inkscape:guide-bbox="true"
     fit-margin-top="0"
     fit-margin-left="0"
     fit-margin-right="0"
     fit-margin-bottom="0"
     inkscape:zoom="0.79619579"
     inkscape:cx="137.61894"
     inkscape:cy="276.45129"
     inkscape:window-x="65"
     inkscape:window-y="24"
     inkscape:window-maximized="0"
     inkscape:current-layer="svg2" />
  <clipPath
     id="p.0">
    <path
       d="m 0,0 398.55118,0 0,419.18634 L 0,419.18634 0,0 Z"
       id="path5"
       inkscape:connector-curvature="0"
       style="clip-rule:nonzero" />
  </clipPath>
  <path
     style="fill:#50c5db;fill-rule:nonzero"
     inkscape:connector-curvature="0"
     id="path11"
     d="m 5e-6,199.07086 0,0 C 5e-6,89.12706 89.127075,0 199.07086,0 q 87.89378,0 175.78755,23.283327 23.28333,87.893773 23.28333,175.787543 l 0,0 c 0,109.9438 -89.12708,199.07088 -199.07088,199.07088 l 0,0 C 89.127066,398.14175 0,309.01467 0,199.07087 Z" />
  <path
     style="fill:#42a3b6;fill-opacity:1;fill-rule:evenodd;stroke:none;stroke-width:1px;stroke-linecap:butt;stroke-linejoin:miter;stroke-opacity:1"
     d="M 286.85938,87.467509 238.02091,105.06226 198.354,81.556042 140.71033,314.37876 265.97919,386.65724 c 37.14041,-13.25582 72.9261,-38.9474 99.85133,-78.94799 24.67286,-36.65444 38.8438,-85.97694 30.73666,-156.90191 z"
     id="path3374"
     inkscape:connector-curvature="0"
     sodipodi:nodetypes="cccccscc" />
  <path
     style="fill:#ffffff;fill-rule:nonzero"
     inkscape:connector-curvature="0"
     id="path19"
     d="m 122.75169,274.37456 q 0,-13.3125 5.82813,-54.60938 5.82812,-41.29687 5.82812,-63.9375 0,-22.64062 -2,-30.64062 -3.32812,-11.3125 -13.32812,-25.96875 l -3.32813,-4.32812 1.32813,-6.65625 q 31.96875,-6.67188 81.25,-6.67188 5.67187,11.32813 5.67187,27.64063 0,31.96874 -8.32812,83.92187 -8.32813,51.95312 -8.32813,60.9375 0,18.98437 8.65625,18.98437 10,0 25.3125,-17.14062 15.3125,-17.15625 27.79688,-43.29688 12.5,-26.14062 14.15625,-48.125 l -35.625,-23.96875 q 2.65625,-19.3125 9.65625,-33.79687 7,-14.5 13.3125,-20.15625 6.32812,-5.65625 10,-5.65625 21.3125,0 33.29687,12.48438 11.98438,12.48437 11.98438,29.14062 0,24.96875 -12.82813,59.26562 -12.8125,34.29688 -32.46875,65.10938 -19.64062,30.79687 -45.95312,52.45312 -26.29688,21.64063 -48.10938,21.64063 -21.8125,0 -32.79687,-12.98438 -10.98438,-13 -10.98438,-33.64062 z" />
</svg>
